{
"$sc-color-primary": "#81B550",
"$sc-color-secondary": "#3A3A3A",
"$sc-button-primary-hover-background-color": "#72D0E3",
"$sc-header-top-background-color": "#72D0E3",
"$sc-header-top-text-color": "white",
"$sc-header-background-color": "white",
"$sc-header-message-color": "#949594",
"$sc-header-link-separator-color": "#EAEAEA",
"$sc-header-link-text-color": "#3A3A3A",
"$sc-header-link-hover-text-color": "#949594",
"$sc-header-link-active-text-color": "#72D0E3",
"$sc-mobile-header-sidebar-link-color": "#3A3A3A",
"$sc-header-icon-color": "#3A3A3A",
"$sc-header-icon-hover-color": "#72D0E3",
"$sc-header-social-icon-color": "#949594",
"$sc-header-social-icon-hover-color": "#72D0E3",
"$sc-main-navigation-link-color": "#3A3A3A",
"$sc-main-navigation-link-hover-color":  "#81B550",
"$sc-main-navigation-submenu-heading-bgr-hover-color":  "#81B550",
"$sc-main-navigation-submenu-heading-color": "#3A3A3A",
"$sc-footer-background-color": "#EEEEEE",
"$sc-footer-text-color": "#3A3A3A",
"$sc-footer-link-color": "#3A3A3A",
"$sc-footer-icon-color": "#3A3A3A",
"$sc-footer-headings-color": "#3A3A3A",
"$sc-footer-copyright-background-color": "#72D0E3",
"$sc-footer-desktop-copyright-background-color": "#72D0E3",
"$sc-footer-copyright-border-color": "transparent"
}
